econAssignments
…
Part II

# Create a vector which contains the fitted / predicted values; we use the values for beta0hat and beta1hat because this is the estimated line and we must use the values that were generated using our sample data; it is important not to conflate beta0hat and beta1hat with beta 0 and beta 1. 
yhat <- vector()
residuals <- vector()
for (i in 1:1000) {
  yhat[i] <- beta0hat + beta1hat*xpop[i]
  residuals[i] <- ypop[i] - yhat[i] 
}
# Self note, do not, when writing loop, assign the output of the DGP to the whole vector because you will only store that one value, you have to remember that you are only storing for one individual "loop" of the process. . .so, here, instead of assigning beta0hat + beta1hat*xpop[i]  to yhat, it should be assigned to yhat[i]

# Create a data frame so that all of the values can be compared in a neat, unified way. 
tibble(x = xpop, y = yhat, residuals)

## # A tibble: 1,000 x 3
##        x     y residuals
##    <dbl> <dbl>     <dbl>
##  1 10.0   47.8    -0.907
##  2 12.5   57.6    -1.87 
##  3  9.44  45.5     4.52 
##  4 10.6   50.0    -0.435
##  5 11.3   52.9     1.23 
##  6  8.67  42.5     5.39 
##  7  8.96  43.6    -0.492
##  8 12.9   59.1    -4.51 
##  9  9.06  44.0     2.96 
## 10 12.4   57.3    -2.46 
## #  with 990 more rows
…
# Then, calculate the RSS by summing up the components and squaring 
RSS <- sum(RSSComp^2)
RSS

## [1] 8734.565

# RSS is 8810.586

babyShark <- tibble(ESSi = ESSComp^2, RSSi = RSSComp^2, TSSi = TSSComp^2)
babySharkMutate <- dplyr::mutate(babyShark, ERSSi = ESSi + RSSi)
babySharkMutate

## # A tibble: 1,000 x 4
##        ESSi   RSSi    TSSi   ERSSi
##       <dbl>  <dbl>   <dbl>   <dbl>
##  1   0.0372  0.823  0.510    0.860
##  2 100.      3.48  66.3    104.   
##  3   4.28   20.4    5.98    24.7  
##  4   5.71    0.189  3.82     5.90 
##  5  28.8     1.51  43.5     30.3  
##  6  26.0    29.1    0.0871  55.1  
##  7  15.6     0.242 19.7     15.9  
##  8 133.     20.3   49.2    153.   
##  9  12.6     8.75   0.348   21.3  
## 10  93.7     6.03  52.2     99.7  
## #  with 990 more rows
…
